D:\Java Projects\Random Projects\jenkins-starter\src\main\java\org\example\factory\EmployeeDashBoard.java
D:\Java Projects\Random Projects\jenkins-starter\src\main\java\org\example\factory\EmployeeDashBoardImpl.java
D:\Java Projects\Random Projects\jenkins-starter\src\main\java\org\example\App.java
D:\Java Projects\Random Projects\jenkins-starter\src\main\java\org\example\model\Employee.java
